index.qmd
…
# export processed data

write_csv(air_quality,
           here::here("data/processed/who_ambient_air_quality_database_version_2024_(v6.1)_processed.csv"))

Note: *****Create ReadMe & Dictionary files

# load dataset
air_quality

# A tibble: 6,927 × 10
   region iso3  country      city     year  pm10  pm25    no2 station population
   <chr>  <chr> <chr>        <fct>   <int> <dbl> <dbl>  <dbl> <chr>        <dbl>
 1 AF     BEN   Benin        Cotonou  2020   9.1  7.7  130.   NA          691949
 2 AF     ZAF   South Africa Buffalo  2021  29.0 12.6   10.9  NA          708559
 3 AF     ZAF   South Africa Cape T…  2019  19.8  8.07  24.2  NA         4617560
 4 AF     ZAF   South Africa Cape T…  2020  25.2  8.91   8.22 NA         4617560
 5 AF     ZAF   South Africa Cape T…  2021  36.3 14.9   17.2  NA         4617560
 6 AF     ZAF   South Africa Ethekw…  2015  23.7 15.6    3.7  NA         3158313
 7 AF     ZAF   South Africa Ethekw…  2020  39.1 16.8   36.4  NA         3158313
 8 AF     ZAF   South Africa Ethekw…  2021  39.1 16.7   11.6  NA         3158313
 9 AF     ZAF   South Africa Johann…  2012  57.9 27.0   36.5  NA         5782747
10 AF     ZAF   South Africa Johann…  2013  41.0 23.1   55.1  NA         5782747
# ℹ 6,917 more rows
…
